MATH 3190 Homework 1
…
  team_summary = team_summary |>
    add_row(team_name = team,
            wins = summary$wins,
            loss = summary$loss,
            win_pct = summary$win_pct)
}

team_summary = team_summary |>
  arrange(desc(win_pct), team_name)

print(team_summary)

# A tibble: 724 × 4
   team_name      wins  loss win_pct
   <chr>         <dbl> <dbl>   <dbl>
 1 Montana Tech      1     0   1    
 2 Virginia St.      1     0   1    
 3 Wilmington DE     1     0   1    
 4 Miami OH         13     1   0.929
 5 Arizona          12     1   0.923
 6 LSU              12     1   0.923
 7 Vanderbilt       12     1   0.923
 8 Gonzaga          13     2   0.867
 9 George Mason     12     2   0.857
10 Miami FL         12     2   0.857
# ℹ 714 more rows
…
